Cartographie • ACC
…
On crée un dataframe contenant le nombre d’accidents par coordonnées gps

accidents_gps_group <- accidents_gps %>%
  dplyr::select(Num_Acc, dep, date_acc, lat, long) %>%
  dplyr::group_by(Num_Acc, lat, long, date_acc) %>%
  summarise(n = n()) %>%
  dplyr::select(Num_Acc, lat, long, date_acc)
#> `summarise()` regrouping output by 'Num_Acc', 'lat', 'long' (override with `.groups` argument)

Combien d’accidents avec des coordonnées gps renseignées nulles ?

accidents_gps_group %>% filter(lat==0, long==0) 
#> # A tibble: 13,043 x 4
#> # Groups:   Num_Acc, lat, long [13,043]
#>    Num_Acc        lat  long date_acc  
#>    <chr>        <dbl> <dbl> <date>    
#>  1 201500000001     0     0 2015-01-20
#>  2 201500000003     0     0 2015-07-08
#>  3 201500000004     0     0 2015-07-22
#>  4 201500000005     0     0 2015-11-13
#>  5 201500000007     0     0 2015-06-04
#>  6 201500000008     0     0 2015-08-01
#>  7 201500000009     0     0 2015-10-01
#>  8 201500000010     0     0 2015-03-01
#>  9 201500000011     0     0 2015-04-18
#> 10 201500000012     0     0 2015-05-27
#> # ... with 13,033 more rows
…
