Exploration des données brutes • ACC
…
# pas convaincue par l'intérêt de cette variable

# variable catv = Catégorie du véhicule

vehicules %>%
  group_by(catv) %>%
  summarise(n = n(),
            prop = n / nrow(vehicules)) %>%
  arrange(desc(prop))
#> `summarise()` ungrouping output (override with `.groups` argument)
#> # A tibble: 31 x 3
#>     catv     n    prop
#>    <int> <int>   <dbl>
#>  1     7 60787 0.604  
#>  2    33  8205 0.0815 
#>  3    10  6608 0.0656 
#>  4     1  5000 0.0496 
#>  5     2  3716 0.0369 
#>  6    30  2990 0.0297 
#>  7    32  2399 0.0238 
#>  8    31  1898 0.0188 
#>  9    34  1325 0.0132 
#> 10    15   978 0.00971
#> # ... with 21 more rows
…
# Fait-on des regroupements du style : avant/arrière/côté et aucun ?

# variable manv = Manoeuvre principale avant l’accident

vehicules %>%
  group_by(manv) %>%
  summarise(n = n(),
            prop = n / nrow(vehicules))  %>%
  arrange(desc(prop))
#> `summarise()` ungrouping output (override with `.groups` argument)
#> # A tibble: 28 x 3
#>     manv     n   prop
#>    <int> <int>  <dbl>
#>  1     1 40258 0.400 
#>  2     2 11792 0.117 
#>  3    15  8190 0.0813
#>  4     0  5947 0.0591
#>  5    13  4518 0.0449
#>  6    26  3603 0.0358
#>  7    17  3598 0.0357
#>  8     9  3003 0.0298
#>  9    23  2763 0.0274
#> 10    16  2546 0.0253
#> # ... with 18 more rows
…
