Prévisions des accidents ayant entrainés des blessures/décès • ACC
…
Dans un premier temps nous allons modéliser selon la formule suivante

fml <- as.formula("Y ~ .")

## Données format matrice pour glmnet
donX <- model.matrix(fml,data=don_apprentissage)[,-1]
donY <- don_apprentissage$Y

Les résultats de la validation croisée en 4 blocs sont les suivants :

resultats = map_dfr(1:nb,predict_cv)

resultats
#> # A tibble: 72,018 x 9
#>    Y         reg_lin  ridge  lasso  elnet    rf adaboost logitboost neuralnet
#>    <fct>       <dbl>  <dbl>  <dbl>  <dbl> <dbl>    <dbl>      <dbl>     <dbl>
#>  1 Blessures  0.0111 0.0662 0.0287 0.0339 0.261   0.100    0.000911     0.413
#>  2 Blessures  0.302  0.100  0.140  0.127  0.221   0.125    0.0474       0.413
#>  3 Indemne    0.304  0.317  0.297  0.298  0.447   0.344    0.269        0.413
#>  4 Blessures  0.244  0.256  0.280  0.277  0.242   0.197    0.269        0.413
#>  5 Blessures  0.0462 0.183  0.0948 0.112  0.238   0.112    0.00669      0.413
#>  6 Indemne    0.462  0.478  0.459  0.464  0.525   0.459    0.731        0.413
#>  7 Blessures  0.227  0.494  0.343  0.379  0.213   0.311    0.731        0.413
#>  8 Blessures  0.115  0.172  0.124  0.134  0.152   0.0956   0.000911     0.413
#>  9 Indemne    0.655  0.605  0.666  0.657  0.593   0.692    0.731        0.413
#> 10 Indemne    0.717  0.628  0.650  0.647  0.704   0.737    0.731        0.413
#> # ... with 72,008 more rows
…
