Statistiques descriptives avec ggplot2 • ACC
…
sum_ceint <- ceint %>%
  group_by(secu1) %>%
  summarise(nb_accidents_secu = sum(nb_accidents_ceint))
#> `summarise()` ungrouping output (override with `.groups` argument)

ceint_1 <- ceint %>% 
  left_join(sum_ceint,by="secu1") %>%
  mutate(prop = (nb_accidents_ceint / nb_accidents_secu)*100)

ceint_1
#> # A tibble: 38 x 5
#> # Groups:   secu1 [10]
#>    secu1            grav               nb_accidents_ceint nb_accidents_se~  prop
#>    <chr>            <chr>                           <int>            <int> <dbl>
#>  1 Airbag (2RM/3RM) Blessé hospitalisé                 50              130  38.5
#>  2 Airbag (2RM/3RM) Blessé léger                       37              130  28.5
#>  3 Airbag (2RM/3RM) Indemne                            30              130  23.1
#>  4 Airbag (2RM/3RM) Tué                                13              130  10  
#>  5 Aucun équipement Blessé hospitalisé               8754            22227  39.4
#>  6 Aucun équipement Blessé léger                     7794            22227  35.1
#>  7 Aucun équipement Indemne                          2968            22227  13.4
#>  8 Aucun équipement Tué                              2711            22227  12.2
#>  9 Casque           Blessé hospitalisé              40111           114561  35.0
#> 10 Casque           Blessé léger                    59854           114561  52.2
#> # ... with 28 more rows
…
